…
# find marker genes that disinguish each cluster compared to all other cells
# use default Wilcox algorithm and default cutoffs for minimum detection and log(fold-change) and 
# save only the positive marker genes (higher expression in the cluster being tested vs all other cells)
sobj.markers <- FindAllMarkers(sobj.filtered, only.pos = TRUE)

#check the top marker genes by cluster
sobj.markers %>%
  group_by(cluster) %>%
  dplyr::filter(avg_log2FC > 1)
```
The top results for Cluster 0 should look like:
```
# A tibble: 19,082 × 7
# Groups:   cluster [18]
   p_val avg_log2FC pct.1 pct.2 p_val_adj cluster gene   
   <dbl>      <dbl> <dbl> <dbl>     <dbl> <fct>   <chr>  
 1     0       2.61 0.931 0.27          0 0       NKG7   
 2     0       2.37 0.855 0.233         0 0       GZMA   
 3     0       2.25 0.946 0.332         0 0       CST7   
 4     0       2.55 0.787 0.182         0 0       C1orf21
 5     0       2.24 0.916 0.337         0 0       SAMD3  
 6     0       1.94 0.998 0.505         0 0       CCL5   
 7     0       3.33 0.577 0.088         0 0       FGFBP2 
 8     0       1.49 0.725 0.238         0 0       GNLY   
 9     0       1.01 0.846 0.371         0 0       ZEB2   
10     0       2.16 0.866 0.396         0 0       TGFBR3 
# … with 19,072 more rows
# ℹ Use `print(n = ...)` to see more rows
```
…
